err_N,err_NE,err_E,err_SE,err_S,err_SW,err_W,err_NW,err
0.003112381123572933,0.003121446587197693,0.0031163311205936162,0.00311122158906391,0.0031021839068855407,0.0030931670917847946,0.0030982488860013483,0.0031033365865337057,0.0031072795548884526
0.0022375254529292555,0.0022446615765728843,0.0022409490494683516,0.0022372409116119605,0.0022301272813822766,0.0022230311395770126,0.0022267168224391733,0.0022304068700057817,0.0022338241786740943
0.001243486799739007,0.001248000933935889,0.0012458769432657922,0.0012437555699030486,0.0012392559788501842,0.0012347681029797476,0.0012368749587064218,0.0012389844153851332,0.0012413700847338923
0.0008688364081644319,0.0008721286270377578,0.0008706499179257859,0.0008691730189425484,0.0008658914147301997,0.0008626186869776861,0.0008640849904971755,0.0008655530921948971,0.0008673630093737803
0.000501125899168731,0.0005031981754468635,0.0005023362927701181,0.0005014754853103993,0.0004994099380457916,0.000497350369623908,0.0004982044607957293,0.0004990596195145019,0.0005002673829184014
0.00038990485670598995,0.00039149703449345224,0.0003907977877126229,0.00039009947413954754,0.0003885127055506989,0.0003869304432512093,0.00038762335800715097,0.00038831719930461193,0.0003892083161928968
0.00022073024903629786,0.00022154555614775024,0.00022113039608795182,0.00022071583164702847,0.0002199034522267809,0.00021909309622372266,0.00021950473833083056,0.00021991697211508785,0.00022031655380854844
0.00012743020235566284,0.00012783184072152773,0.00012757625863668855,0.00012732107687814638,0.00012692099733465175,0.00012652177799934278,0.00012677540369546424,0.00012702942737358576,0.00012717540026863623
0.00015381734926132314,0.00015425712096458355,0.00015395613033843632,0.00015365559728997008,0.00015321747717930083,0.00015277993136478631,0.0001530788149914262,0.0001533781538186847,0.0001535171850260409
0.00013475494862470096,0.0001342537194305538,0.00013395842569778106,0.0001336636653945961,0.00013416267011910035,0.00013466318638125468,0.00013496017243379632,0.00013525769593315242,0.0001344585416542021
6.140320263819414e-05,6.114719294732811e-05,6.1010117917031886e-05,6.0873296775960284e-05,6.112816030636435e-05,6.138387265424515e-05,6.152184075916202e-05,6.166006484914017e-05,6.126555400450109e-05
3.7872446681366204e-05,3.7691309838340174e-05,3.7603018556240155e-05,3.751489888129191e-05,3.7695211340361136e-05,3.7876198364680585e-05,3.796514312742375e-05,3.8054261033841886e-05,3.778374282378946e-05
8.07323544888558e-06,8.033728255201409e-06,8.014872277188717e-06,7.996053049188107e-06,8.035380008748983e-06,8.074858807637483e-06,8.09385843382145e-06,8.11289514715743e-06,8.054289269670244e-06
0.0,0.0,0.0,0.0,0.0,0.0,0.0,0.0,0.0
0.0,0.0,0.0,0.0,0.0,0.0,0.0,0.0,0.0
0.0,0.0,0.0,0.0,0.0,0.0,0.0,0.0,0.0
0.0,0.0,0.0,0.0,0.0,0.0,0.0,0.0,0.0
0.0,0.0,0.0,0.0,0.0,0.0,0.0,0.0,0.0
0.011678829456677763,0.011690163596322965,0.011672971851903066,0.011655797306956253,0.011644494946590655,0.011633191320770203,0.011650334097305697,0.011667494042282811,0.01166165360965392
0.010829524187441215,0.01084223187562566,0.010826413349690443,0.010810610676423542,0.010797937756823339,0.010785267772486323,0.01080103569378655,0.010816819434196366,0.010813723054186743
0.011082474476498618,0.011096876050268281,0.011080652782816508,0.011064445890507434,0.01105008418427842,0.01103572757619691,0.011051894623982522,0.011068078007698566,0.011066271152620242
0.010635455503219812,0.010650188162138923,0.010634441199793822,0.010618710395221208,0.01060401942966817,0.010589334618984947,0.010605023756890883,0.010620729010445454,0.01061972939808943
0.00979887933453366,0.00981373136038575,0.009799199147735445,0.009784681927181923,0.00976987117977099,0.009755070195516656,0.0097695461676533,0.009784037091479748,0.009784367771206913
0.009187943055572786,0.00920248932862312,0.009189297691282537,0.009176119279254496,0.009161611659897883,0.009147117344238996,0.009160257134894427,0.00917341011395186,0.009174770754308958
0.008052282350699847,0.008066535491588825,0.00805538726976289,0.008044249763881755,0.008030032903936396,0.00801583242914503,0.008026933687828508,0.008038045629528338,0.008041152277580824
0.006680416055014238,0.006692843228057215,0.0066839660304448476,0.006675097165540533,0.006662699021456413,0.006650319541228435,0.006659159407627817,0.006668007582189401,0.00667155337802076
0.007099512098776668,0.0071137711826529774,0.007105117295982764,0.007096471048897321,0.007082239847239147,0.00706803464942228,0.007076653044471801,0.007085279059681272,0.007090872158074307
0.008112702857292814,0.008135035064028214,0.008135231206513367,0.008135426710482029,0.00811307518123278,0.008090777806745858,0.00809060158528967,0.008090424739008338,0.008112889335095215
0.007482307793020373,0.007503860945952079,0.00750454946105558,0.007505237179333854,0.007483665998068794,0.007462147349782802,0.007461477623440755,0.007460807111848317,0.007482987291060507
0.006358430969425252,0.006377216470189243,0.00637734107218108,0.006377464608739686,0.006358664123412292,0.006339911045354735,0.0063398024568558295,0.006339692816421311,0.006358548075757766
0.005345730157859194,0.005362473188139177,0.0053628791743613,0.005363284007962633,0.005346526131776675,0.005329815087267098,0.0053294250651904455,0.00532903390167729,0.005346128718329994
0.004502913526957387,0.0045179942531000565,0.0045183814933640355,0.004518767550724719,0.00450367476092533,0.004488625339467648,0.0044882513150978675,0.004487876118742481,0.004503294732660967
0.004136418809298889,0.004150161579818796,0.004150785799575686,0.00415140892452968,0.004137652594287149,0.004123936237613796,0.004123326640526691,0.004122715958223648,0.004137036246795738
0.00384165246245071,0.0038549616827014107,0.003855611013393198,0.0038562592478061804,0.003842936686827199,0.0038296541142396646,0.0038290191886406096,0.003828383175863069,0.0038422951205013566
0.0036076348282006315,0.0036204083696190904,0.0036209243100572,0.0036214392014075267,0.0036086537044142377,0.003595906680834324,0.0035954037148136562,0.003594899709298536,0.003608144788450666
0.003710497075701822,0.0037228451684196543,0.0037233293869299708,0.0037238126372204907,0.003711451867459879,0.0036991269896417527,0.0036986563856058812,0.003698184821862801,0.003710974953561131
0.005198169806884008,0.005199273417358433,0.0051939768543149524,0.005188683785729433,0.0051875743894107896,0.005186460424640136,0.005191759262076192,0.005197061602944902,0.00519287034867212
0.004293740336825291,0.004295981172300183,0.004291754680841064,0.0042875308087196515,0.004285288946369454,0.004283045605464202,0.004287270493156511,0.004291498003516829,0.004289513331093462
0.005217020439379466,0.005217777353597889,0.005212387937539476,0.005207002159612441,0.00520624102973508,0.005205479199818856,0.005210869182378304,0.0052162628081174915,0.00521162891422713
0.005359663490984103,0.0053595265458700435,0.005353995181030937,0.005348467592293091,0.005348598220516274,0.00534873112129158,0.00535426501863185,0.005359802698807024,0.005354128966014531
0.006756134980226555,0.006752469999504343,0.006745429413339624,0.00673839362665218,0.006742044001517814,0.0067457005825659645,0.006752750968973524,0.006759806167906154,0.006749087087871078
0.007782911691425469,0.0077782873738683105,0.007770216851761485,0.0077621518802570635,0.007766760702645516,0.0077713786636215716,0.007779459126560393,5.8923932645185946e-05,0.007774833418675528
0.008787834321432222,0.008783608701974432,0.008774591619800839,0.0087655804977181,0.00876979290564114,0.008774014735604841,0.008783039065469397,0.008792069364062705,0.008778810631330207
7.935977282486217e-06,0.0006230329074036933,0.008387149710431396,0.008378743750999167,0.008381484359643747,0.008384231522967328,0.008392647333821711,0.008401068452102253,0.008389895245789472
0.0015274304550417807,0.0008179306523177454,0.010506967698380078,0.010496522360191671,0.010500602091753115,0.010504688825225365,0.010515146216994854,0.010525610069024947,0.010511053459065037
0.0013785872410389747,0.0013810326275568768,0.0013803776037856522,0.0013797229904141436,0.0013772757140754505,0.0013748360147368276,0.0013754925165468958,0.0013761494306426853,0.0013779312718864268
0.0011365834182733316,0.0011392714840540894,0.001138832571017942,0.0011383938958915442,0.001135705023439999,0.0011330230565521882,0.0011334625363661778,0.0011339022548989134,0.0011361441016996554
0.0012213533473719445,0.0012222669669817877,0.0012214492600372158,0.00122063211234633,0.001219714891102328,0.0012188036208197906,0.0012196243698833163,0.001220445682119941,0.001220533838631754
0.0012666752433508673,0.0012677719137727367,0.0012670856650702786,0.0012663997414980486,0.0012652999969524697,0.0012642064972698448,0.0012648954952021267,0.001265584821093604,0.0012659874568804
0.0014772430241384988,0.0014777490163375873,0.0014767344270175079,0.0014757204479163629,0.0014752107054318575,0.0014747086240005558,0.0014757263556539164,0.0014767447004809323,0.001476226558938346
0.0011787081031266683,0.0011779288035616898,0.0011772790809910577,0.0011766296449132205,0.0011774053897622586,0.0011781877522739166,0.0011788407465835487,0.001179494029224699,0.0011780566027393196
0.0012275929590640279,0.0012264520646474819,0.0012255133825935735,0.0012245750896707661,0.001225711392968321,0.001226854097628927,0.001227796986169639,0.0012287402673833102,0.0012266519805664974
0.0012015505245897631,0.0011998304610944886,0.00119876488743386,0.0011977000139427414,0.0011994152913987585,0.0012011365320571752,0.0012022061956003629,0.0012032765632116291,0.0012004825569360657
0.0020871838780508645,0.002083341264972935,0.0020816095495265847,0.002079878626157925,0.0020837128278906377,0.002087558541410229,0.0020892978851047325,0.0020910380251653394,0.00208544795586126
0.1281639122866305,0.01449383052686285,0.08184568954308095,0.08182938060273734,0.0456451227176827,0.005613588976361963,0.1130453401147682,0.1802399913398954,0.03272597689660538
0.1519558673120219,0.0034785456286083923,0.07267441707967112,0.04786184567291903,0.033212527654010594,0.017637485350545327,0.1262270951228889,0.19564664985662206,0.03074632328675137
0.14116858136166968,0.0027688420981021944,0.04618384066764413,0.042627758097888255,0.02244829915782332,0.02083163361092851,0.12107428553379884,0.20757094733371947,0.029313562717250836
0.13958396470619175,0.011500293812768543,0.0418887757603912,0.032571052668469457,0.015627007652066406,0.011369539785290846,0.13794266680492265,0.21577648419461976,0.014681363499852211
0.16105725391715126,0.031631684155482585,0.035358308193265596,0.026312993087300913,0.007160951869682726,0.007763712465893747,0.13192998027958344,0.26043706313947007,0.003547121560535828
0.15080920806538725,0.08196356278266811,0.028121046642680395,0.01954598757624967,0.008758825475955445,0.00600929736410222,0.11865888504926914,0.2607082998780788,0.005214657700116755
0.17929197998073548,0.10474725148653878,0.023633234438586514,0.012051008506687949,0.007995539703019085,0.010670797045431848,0.11799477280870418,0.21352584621127374,0.007281173992875723
0.17326535415843775,0.09024944553893689,0.020445455068622397,0.00957414142966929,0.007138981959108323,0.013030457667138144,0.12194924300914133,0.15761543469710712,0.006880518611618723
0.1422092002507017,0.06296401893042573,0.019354911581366915,0.006677540874030998,0.004132236151974969,0.008899017021220377,0.11282024571026804,0.12554423739735637,0.0024471541521103837
0.1706349598075253,0.01354739980141214,0.06139594535872415,0.010831591216919886,0.04033370642870943,0.041497340726178895,0.06147822349922445,0.021974571847250893,0.028178662176803065
0.1308980733442713,0.03544863836941733,0.03945086291344159,0.024028212284271558,0.03876131499170554,0.03402992374020505,0.05866700343007895,0.011270810734498492,0.05861908908196926
0.07450442927481159,0.05535384822475452,0.025769914292618608,0.02632413648743672,0.030704287527411164,0.021404565539664088,0.032476563378794156,0.005474822674088381,0.055376946928783956
0.03622630716653331,0.06523435764000234,0.03836897191921583,0.033286126094776484,0.04114180793452141,0.030369746020046415,0.041514373268469275,0.02474005844363866,0.06529303456564482
2.369805090722777e-05,0.04775563596786699,0.027015995868973887,0.02251179196493532,0.025605734624561446,0.018015426746591904,0.012658218451521062,0.04787001770419123,0.027756954242045318
0.024825470470716326,0.056928222207913444,0.05690244065342053,0.026293402098102353,0.017656409428295886,0.019760918045891473,0.009990039869586626,0.034669899102567146,0.032472367291331065
0.022560934101219017,0.03038549701032885,0.01849110823384303,0.01766877930816858,0.01196786425972585,0.004167110593960072,0.009593878425807166,0.012159915854115156,0.031490661536708826
0.009421501622097225,0.013677787521303157,0.015344805774786925,0.010374989266823719,0.006336111533420823,0.009032912471493185,0.016777963217574902,0.027054571501609476,0.007594298680082385
0.004068766199717879,0.013515856452843,0.01616172346661604,0.00520431985053616,0.005522228905022393,0.009134066172896959,0.026716945926674417,0.016740726269058388,0.017977415690457826
0.14290970288489843,0.012260872945168847,0.133058578121773,0.00513870002902688,0.040724069097726655,0.10799463622658269,0.0077620778270232026,0.02410621794202979,0.17092579138288333
0.08885190847487882,0.00013241004865245464,0.1917075029449561,0.010798412611454741,0.03636786402410994,0.11744199184742964,0.0017845241634961055,0.05612037323998699,0.15551031286109687
0.006808578502221788,0.025709653833310028,0.16218069066854215,0.009617151683167426,0.08673374617756312,0.07674349388666414,2.0740405091801837e-05,0.03532378677823298,0.018023245877313996
0.040624597226116235,0.049784094544141476,0.17792881726350765,0.024314913768888523,0.09364718666140777,0.06345044396519822,7.031104066386185e-06,0.018530766651686077,0.002584290104700686
0.00270228692434925,0.0512792945267081,0.21552950125644077,0.16577505742413567,0.20907109276509198,0.025693101451013996,0.06448090284867344,0.02614428575726296,0.03485290239097599
0.02621440393589651,0.043581851340606895,0.24054015054652075,0.14904411682308652,0.10120386791523162,0.09102352523129006,0.0028376530360289987,0.0017838772365043325,0.0979279316160103
0.05097394004711707,0.0595576898052398,0.15158933277658507,0.1235838007446347,0.07318389738419014,0.00042916330308475265,0.024709303266407395,0.001455001695806486,0.014222990276355565
0.0020423020600682795,0.08390522351889454,0.16239728386851646,0.047500653346333174,0.00603068468621379,0.004081667006313407,0.03264332657032218,0.0017090749702664207,0.029056644606094507
8.721323411562725e-05,0.07035811900323656,0.16121742343705528,0.09599590052443788,0.004879066569361675,0.004452162584601985,0.00014648352031574143,0.00419285566882223,0.0022738264631438445
0.004006844660470218,0.022422757881475543,0.028388756846046356,0.07466735852596994,0.05624584297073496,0.03192494302674494,0.04887903672629417,0.053916871172941264,0.003393538277732571
0.0031651091554329466,0.026280916011630028,0.0005129768757937967,0.011089262985244873,0.03122600383353505,0.027492154682414508,0.11175190430561091,0.047400880065769944,8.869097316452342e-06
0.013274644818225064,0.014523978507471332,0.001034605535670891,0.000373088154545746,0.004925316604905082,3.270220877109464e-05,0.191481752413583,0.05108789203023693,0.0015068649987560509
0.04472610806039242,0.005250218730623238,0.0019031383938811082,0.003497456639305051,0.025293822027641317,0.015287154713015318,0.1132934631559286,0.05945163098972467,0.011424666633481908
0.039957738360173085,0.0016648491231647656,0.007112288007605189,0.053797382982676015,0.0301211713276445,0.22388500189010843,0.1230144223809904,0.1350400056839299,0.06119756002932869
0.09212748421099914,0.02663100946171886,0.009250321109646218,0.04927516515091275,0.0012653257576414726,0.06782504003978655,0.18901055898521293,0.12271065910394977,0.10898936466531262
0.061383107601244366,0.01531015140790916,0.00045490981858464324,0.0161614314507077,0.06110550146900895,0.13846790498488687,0.15040277429480928,0.11393514610138988,0.031230059982493417
0.23892631868721506,0.0035075252086697937,0.04918922073436101,0.03146759475373046,0.10117775488959548,0.1607160873697143,0.34871551010990526,0.252856045584542,0.10790369930066983
0.2978625757465634,0.005267778888007282,0.009134118758719416,0.000222837196529893,0.15232321191378523,0.37217619526127493,0.0974179409085446,0.17486978688640173,0.07025293799173332
