err_N,err_NE,err_E,err_SE,err_S,err_SW,err_W,err_NW,err
0.0012790685348380913,0.00027271358654462044,3.6373788352625963e-09,3.2670560634306364e-16,1.0764400500477815e-11,1.8617922115669815e-10,3.436635564703298e-05,0.0033359055513172034,2.205598027491515e-06
0.0019223569685654263,0.00020247000358337638,3.4630951296524218e-09,1.1089818126756557e-15,4.6634392042625845e-11,8.075691313413579e-10,0.00014751401487267613,0.009395463961785597,9.015792645240957e-06
0.0001768288682534458,1.5373495658859297e-05,1.19398753280647e-10,3.9453101252703807e-19,4.874772768550504e-18,2.8856944467001165e-20,9.326811885117484e-12,1.0802025099219451e-06,1.5867180143860786e-09
0.00011045188922616921,6.572094908993259e-06,4.662496483591394e-11,1.3925378179722727e-19,2.9595907819181623e-18,4.832444490732556e-19,1.8132816011386367e-10,2.3016153890339207e-05,9.774540137796263e-10
2.111202001732829e-09,2.3784022480357857e-08,2.8827081953239205e-16,1.884087377537796e-25,1.5954642988888593e-29,3.212107453983719e-30,2.442743946879275e-18,6.19675045727076e-10,9.9761415948994e-18
4.296596215162057e-09,8.204512064756605e-09,7.916870922947567e-17,2.870896803740366e-26,2.9231675756137287e-29,4.386689802808504e-30,3.3064285202863524e-18,8.320828094293181e-10,1.9359958415559658e-17
1.5634754589824827e-06,5.253313958773416e-09,3.747528975015048e-16,5.16596899808777e-25,2.825608248947893e-20,5.546559325754619e-19,2.1475289420286533e-10,2.8797306457223333e-05,1.1087764824397362e-11
2.700945996575642e-10,1.1097085191676265e-09,6.8620114860474826e-18,1.511385409440816e-29,1.6288680103590026e-30,2.729103704950582e-29,2.1121523103093766e-17,5.441792062916205e-09,1.14441863990882e-18
0.00013348110733605694,9.069227673478407e-06,6.124582321383681e-11,1.5139400445553104e-19,2.5205999969006066e-18,1.4014204862674253e-20,5.430923644869784e-12,9.106168568595309e-07,9.900215919267414e-10
2.522859768766776e-05,1.913317586639083e-05,3.243675680458267e-10,1.996668214372671e-18,2.61031707488392e-18,1.1384888483454874e-21,1.920224405328447e-13,1.5163558811129547e-08,4.148483179166705e-10
1.0137041242915128e-05,7.729967879388571e-06,1.3106439620262662e-10,8.067782329262628e-19,1.054728935287401e-18,4.5998934814207875e-22,7.727415978922163e-14,4.900342784525486e-09,1.6760850017990924e-10
8.196396768475488e-94,5.461945992502063e-119,2.0285670166627955e-129,2.5749027654504635e-143,3.943208401400059e-118,2.0138335244467544e-96,1.6272541322714438e-82,4.519855668031602e-72,3.027175231879818e-104
7.158894922931157e-120,1.266074229689041e-148,2.9022120787268133e-159,2.2776927722834416e-173,1.3141537873328393e-144,2.528616345131912e-119,3.3047076112008752e-105,1.487392675730374e-94,1.6317302319694452e-130
0.0,0.0,0.0,0.0,0.0,0.0,0.0,0.0,0.0
0.0,0.0,0.0,0.0,0.0,0.0,0.0,0.0,0.0
0.0,0.0,0.0,0.0,0.0,0.0,0.0,0.0,0.0
0.0,0.0,0.0,0.0,0.0,0.0,0.0,0.0,0.0
0.0,0.0,0.0,0.0,0.0,0.0,0.0,0.0,0.0
7.102643940307921e-11,4.4686269131845824e-06,1.6012988261910585e-09,1.8799288066227676e-16,2.0056975290556516e-22,7.120523285246733e-19,5.1421339183819245e-12,5.894920781512225e-07,1.8431099937483255e-15
7.743728706305788e-12,7.027419673593116e-06,2.5404785780221187e-09,1.521288541623796e-12,1.3178948402865314e-21,5.292700979765062e-25,8.693402840969214e-17,4.797520680452588e-10,2.51643475565297e-15
0.000240468325270692,0.0007048160899954084,2.660239833459932e-07,5.707629480535694e-12,1.2575829772855377e-14,2.0625993688036164e-17,1.47764661976558e-10,4.1281432187798227e-07,9.381185259120156e-08
0.00028439278296214776,0.001106619888227138,4.164682083789784e-07,6.6788948459977835e-12,1.4843779325544526e-14,2.3751255340152243e-17,1.7012986322569382e-10,4.7099653022333647e-07,1.1083704450058305e-07
1.0360085682267256e-06,0.0006091902900491436,2.2531471231188035e-07,1.0882437097722827e-11,4.726486104346257e-17,3.491807713414741e-23,4.561827047312065e-16,2.437086193279171e-10,3.749169649284663e-10
9.983207274522287e-07,0.0005492529059519248,2.0363125357608328e-07,2.289953952992932e-11,4.587402857418832e-17,3.3650025217383946e-23,4.12229173569117e-16,1.7518200336682067e-10,3.6129289012194317e-10
0.0006370446846204024,0.00016526290143568993,6.375369742144159e-08,2.2840882649052422e-11,3.227291060535077e-14,5.831460805894637e-17,4.176976982191107e-10,1.1624233962993495e-06,2.3992606042654325e-07
2.5435733859227417e-07,1.0212596728293155e-05,3.32756539424282e-09,1.995813374828472e-11,8.01584965256537e-21,2.409409291509834e-25,4.790276212160924e-15,3.517497298503763e-08,5.127551000669188e-14
4.2366610892489227e-07,1.6717985250201227e-05,8.792579919710506e-07,6.219887171496459e-10,2.72367080217971e-16,1.242382210813092e-24,1.6561332165350317e-14,1.3351193728137388e-07,9.51978949455966e-13
0.0001389611056042043,0.02061060116821933,0.0006916582035716471,0.0025004932438370086,0.002126440808218069,0.07529425613194302,0.0028451667310905354,9.318852540043119e-08,9.58507815747776e-05
0.00018727126053372703,0.021487123835249713,0.004937414929667985,0.0019079660359931398,0.001441882276082923,0.05271790475027212,0.006658756070793492,8.647958775762347e-05,0.00040076339795002823
7.0309179697846966e-06,0.012159045516797595,0.00018336944301040488,4.823501030266909e-07,0.0005357981293881551,0.025557923916331757,0.0009598816474710312,2.436234288524888e-08,2.082660499652089e-05
3.469727494819174e-06,0.011737324409200302,0.00014047048507670695,4.8933500446026295e-05,0.00024540359026954,0.00961508283750997,0.0003692573472107726,9.521710820797145e-09,9.593972135553867e-06
2.4120490346028864e-06,0.013179652174828861,0.0002394497844712396,0.00017497997066920018,7.93291302853027e-10,1.2529775848771343e-18,2.2868620611162597e-16,7.837507738269325e-11,3.6185790063329728e-09
1.6820615478950948e-06,0.012154194485992862,0.00021382492433194087,0.00019781359350371137,8.915482670469643e-10,1.3950848878471426e-18,1.4802725524268466e-16,4.327170156125686e-11,3.1799969308667144e-09
2.9687303646857664e-06,0.011415799458692743,8.88284033910938e-05,0.0001928882531167722,8.467664634570398e-10,1.2756304514137428e-18,2.66442829965442e-16,1.1981190247720109e-10,1.6092007913939019e-09
2.9956166086338664e-06,0.010642882088278318,0.00018560039008262255,0.00010703133895890128,4.885124747326804e-10,7.7869139854285905e-19,3.036035280071283e-16,1.2592594607500912e-10,2.903230029438311e-09
2.5809543888879255e-07,0.009712338696094168,0.0002705571773087492,0.0022426617681729254,1.4615754839260665e-05,4.497462337808227e-11,2.1587495889112643e-12,3.2415712308790913e-15,7.352218142783561e-07
4.215150733816309e-06,1.8545437768404146e-06,4.702499773231075e-09,1.0994394395616451e-08,0.00013075009201097304,0.000539828949249096,0.0002457241802728207,1.3040582455292814e-05,5.430793046968721e-05
1.6589642265341944e-07,1.6493179593134933e-06,1.2219323726083581e-11,1.0140442345101848e-12,3.839469953367944e-22,1.0029287463667892e-20,1.4089698118624267e-11,8.111972866863267e-06,2.1384831044971583e-13
2.5569125212573875e-06,1.8960463662584024e-06,1.2229627834011222e-11,1.0031678783471329e-12,1.8956246464781812e-21,7.035747447403229e-21,9.98122268735127e-12,5.927807704704881e-06,2.7954633749312424e-12
3.4375140099225184e-06,1.1867452881372619e-07,7.409678837584701e-12,9.891960582987374e-13,6.241477379172001e-19,5.4071962602779274e-14,3.357754117630304e-08,4.968407216432026e-05,6.354158374541792e-12
1.4399266817742419e-05,2.132635136947305e-06,1.403117686573394e-11,9.612855149520786e-13,8.038022030754744e-21,3.366116621905947e-19,1.50001262386556e-11,8.546535247284719e-06,1.5518713145874725e-11
0.00013906815853569513,2.6956974124491975e-06,2.7702788621300824e-11,1.0307645154929989e-12,1.8153732957868539e-13,6.368934520213985e-12,6.934787032310275e-06,0.0015291588620862805,1.6330312100341874e-07
1.1967449730280832e-05,8.84631882517092e-06,2.4986034556207185e-11,1.0002779336067283e-12,9.638295564939056e-19,8.0712032641977e-14,4.934747586565339e-08,5.285874591357673e-05,1.7531937859126286e-11
0.006431881350239114,0.004010364118162377,3.7591804430460135e-11,1.0160646250584548e-12,6.75210033941852e-14,6.962235558623951e-12,2.9483347102315446e-06,0.0016247870034198594,6.140352089022214e-08
0.003075042698776594,0.004902739970701084,6.951036136667752e-11,2.7978465914706708e-12,2.153481007553946e-14,1.4067967411009801e-12,1.5153508553811852e-06,0.0010136429377318637,2.234286091976149e-08
1.3669430365796024e-06,0.0018185485135177885,0.0008171659281389228,0.0005805027429608093,4.415525798521229e-08,1.3849491757839318e-15,2.8940774420519434e-14,4.659406814827952e-13,2.2506353264449576e-07
6.482887448229842e-05,0.0003779523151286947,0.0005427160445787844,0.00030793958429084793,2.3506031543114292e-08,4.690587254055611e-15,2.2604434292396407e-08,0.00010710219691889832,2.4474864658331626e-07
6.761388942911288e-09,7.024777731118385e-07,1.3610470774263045e-07,7.427440112428416e-08,1.7178757194821483e-15,7.815502238663446e-26,1.2832238608968018e-15,2.4138636172534075e-08,1.5446635076645814e-14
0.00025346572857517044,0.0016194762438946342,0.00015565672062520534,1.2708828312597373e-07,1.3494501601879777e-11,1.191730705525139e-17,5.3708528274609996e-11,2.5327687518556924e-07,2.285603642444569e-07
9.1563093950631e-07,0.00044331022934118134,8.354177332686103e-08,8.15595763759868e-09,1.872814471153393e-16,3.3544651287609164e-24,8.659104254241142e-17,1.236267329674848e-10,1.0290832928708793e-10
3.10508644641573e-07,0.0002641242292358235,2.0591647418501593e-07,8.646598199833764e-12,9.594041767947748e-18,1.947982280238995e-24,2.841657767477227e-17,1.453446479824468e-13,6.21476023556226e-11
3.3144302240764907e-07,0.0002973979493754329,5.436949616477473e-08,6.136856354454511e-15,4.276814874543215e-18,2.009064992900532e-24,2.963345471453466e-17,1.5462027114118844e-13,6.349619974280704e-11
1.1681787178646527e-10,1.073303966318963e-06,1.2583574871744508e-10,7.910713329963976e-18,3.592589719868101e-24,1.0564284237933368e-33,5.4844429759804546e-24,7.416081245912301e-16,9.482776563680551e-17
1.6741660794269912e-07,5.420698402815933e-07,5.913044944267279e-11,4.4980229211318405e-18,3.49388715047022e-24,5.388516288519638e-28,2.1222195801756974e-17,2.8656669193016523e-10,1.319761037404903e-14
0.15675186847860334,9.544883620046931e-05,0.009915854484373557,0.0004439968291354621,0.00398372674063287,0.024675356202286093,0.16698385669146948,0.039022807866440475,0.00018317619503953707
0.19263138845137623,0.0024176315595237775,0.00932129165096382,0.0011003888498566845,0.005968689353377662,0.005968981717138922,0.16867804669596806,0.04461054665402638,0.00014241554256791216
0.16069208961868645,0.026349810389789976,0.0028735062373074333,0.0010369314374884502,0.009340085499482117,0.002205312153376527,0.15278345048812633,0.04739613660868788,1.7657519697456653e-05
0.14151289769931738,0.044359109046760284,0.00309854720625102,0.002419891156778709,0.012591247308302514,0.002969600874793945,0.15926768808530586,0.044280974392809494,0.0013643074993016054
0.17978935190283632,0.09762033131529847,0.0014519295495437584,0.002160772196909134,0.018699251098816577,0.006457798134636784,0.1388087885895915,0.04946693389692565,0.010315933667883413
0.1580352977621612,0.18195792391042787,0.0007133097305052329,0.003111286319867421,0.009350105956645597,0.0050937232244587525,0.1113298557622235,0.039187660380408385,0.005192801986620055
0.15836278049908795,0.21123404932020584,0.00011509736497615637,0.005835470352952331,0.006027235538168673,0.00037801790749687585,0.08692436370259228,0.017529253151533045,0.0001642091725610413
0.14208985935268212,0.1802952957028736,0.0011116810850522291,0.004881678585307869,0.004207599521224315,0.00020712972637789462,0.0766547982035933,0.004686230112105201,8.365417077114291e-05
0.07553910183743424,0.11915277149196718,0.00022491443849537485,0.005936399852770659,0.006799100970487698,0.00012716286647075523,0.05536752094184244,7.097714559724717e-06,0.0002892535005624914
0.22783940852897522,0.010934298111152065,0.04911036042349989,0.04952045469608652,0.008103147398722243,0.04570714890584988,0.24846214091710064,0.001847496084050192,0.038098805204360785
0.19258086531479077,0.0008227741811111647,0.021804204094287804,0.04502632919640721,0.004858392231934989,0.03082357986845786,0.23020534251313735,0.00036570539144793675,0.06518396585869388
0.14590358583887117,0.00035132727308919516,0.008988714969685157,0.03921178031925928,0.009106689657017499,0.009914299006550532,0.13930626454672215,0.025708695473386643,0.03735622648897339
0.11468758484002524,0.00019940967620476037,0.006908135161050072,0.03214937666963979,0.012922806965380909,0.0025771485058201492,0.11451753709929989,0.05580599780317805,0.02539794391972972
0.02007100102309932,9.887310583617928e-05,0.004641645016271494,0.02840192629996799,0.001537192662969158,0.00025563555954818046,0.05357801519194806,0.09082471218384934,0.005291458553091829
0.0007540832574336267,3.137609692882512e-05,0.01632318697556599,0.036246889150718054,0.0003315383423806296,0.0039041348943185273,0.02036157602943408,0.04549586506841244,0.0018572065341363763
0.001189655954148721,0.0020259687857402107,0.0009622908529039687,0.040303260348595916,0.0002850278522930019,0.012618451176375844,0.011495052967885878,0.017578560269107747,0.0014797364038224895
0.00622668533331684,0.009168249658127946,0.0008022809911926087,0.04232829633968664,0.0018068756978040677,0.006455683127312817,0.013370356884340956,0.040624062085184376,0.002992084644066525
0.014233702279235634,0.01003267233101173,0.0013610452500605497,0.037043787331897095,0.0023121095145142985,0.004341281388194446,0.004116099663900899,0.004790357984589119,0.0011409019432349248
0.19632821918592033,0.06140051527988197,0.1149014394340306,0.11212720725457369,0.002420702968259147,0.01714048837442818,0.0002809220042070497,0.05102193308199839,0.11645772758241434
0.09670654936150198,0.009420894209357347,0.14185539595164712,0.01789772264891163,0.0011606674484124534,0.018126802416510046,0.0014736426046120957,0.08752776958612919,0.06974077675847871
0.012201247781475166,0.08848495414124084,0.11474245556660449,0.009141551327282503,0.020087407082036594,0.008923600887646868,0.005001846866079008,0.05344592978147439,5.781130911607208e-05
0.045741925924568876,0.06229922147651441,0.028516107448487513,0.016016621777040312,0.013758335979647963,0.011604780311811167,0.017990345700222024,0.012067819209031503,0.02519621644909627
0.006567709101779223,0.02522349149265103,0.08983082515691979,0.023097427935071715,0.08582154919979869,0.0012561763631955035,1.920123689396744e-05,0.009850765988637305,0.0006499976787080366
0.030644667098178126,0.042876661282114426,0.08858980208162406,0.01561187590073548,0.0124096316965492,0.0037410669765017964,0.02388146485091307,0.002045354388429595,0.031964939596960056
0.055645799660273144,0.05813031121817565,0.031826264283784295,0.02609303503416265,0.02557334203074744,0.044282758420406076,1.155830556949243e-05,0.0014649892500468674,0.002605257581318392
0.0017303498476239907,0.09896339282459053,0.03151615904938483,0.0006953613040299283,0.0037186036678763645,0.021778928539373157,0.00040311585123254827,0.01573040229374228,0.0012222080696799502
0.011925365418098386,0.10081060887618412,0.06024425633336713,0.017183563293313532,0.0818639652671729,0.07484097224116949,0.037462536740073334,0.05506275420741777,0.012577639453298137
0.020955287705063982,0.13566159546567103,0.23559525826279898,0.41063088833067274,0.2671444346737673,0.013711062373762016,0.02369342761059065,0.046723435675699074,0.03421198642022882
0.010077894777973637,0.001499036519186468,0.09299833506958026,0.203069055476357,0.13596684402129525,0.032138894812670994,0.08432825599175255,0.019019432368560032,0.006246022467257486
0.02835199096586824,0.0033037231565950266,0.10100910438050606,0.1451218037711327,0.04165258550746577,0.025540602959083343,0.08643757335040014,0.02561053281992493,0.0030307558332969527
0.02084426445306775,0.08740102444914322,0.08410806787891666,0.07625277410867899,0.011574596364546693,0.014946513160090852,0.1827969773108038,0.14519650744360096,0.0016740767019548977
0.005265729178580518,0.05652067657944272,0.016322706958324912,0.29647406693045525,0.002562071438837322,0.4677402560507763,0.22669866481642167,0.19703939391774403,0.024175415821513876
0.024153002834323395,6.857096715291952e-05,0.12606234058516322,0.2678231901001744,0.002345447172866732,0.12059974428738354,0.19707649863993654,0.05281503962140962,0.04459879288193645
0.02255989766448814,0.0022212215680963644,0.05783785351753387,0.06413953389047164,0.05185988130173115,0.10164916714915792,0.1190462212163266,0.050293976178443764,0.017278164378109948
0.16464372399613728,0.013754766850155054,0.000328584641246872,0.02265112309403071,0.0768038242034971,0.07730913592058339,0.2491376820612045,0.21405978722317798,0.13741735920630765
0.19760459099155078,0.028893394351055104,0.035794502876028755,0.06909542184795342,0.11731244182922204,0.4357668324835367,0.05156894676606317,0.11450696074100078,0.059277409014759745
