err_N,err_NE,err_E,err_SE,err_S,err_SW,err_W,err_NW,err
-0.0105096093755272,-0.0025636097419446,-6.82824756697602e-06,-3.7316723033678517e-10,-1.720346122708498e-09,-6.951578591034238e-10,-1.3465814498717249e-05,-0.0047975153871915,-3.1264260966471385e-05
-4.5947818247799634e-05,-0.000154220694073,-1.6978539970574385e-08,-4.34060753528558e-13,-3.994326349822783e-15,-1.7922353232719522e-15,-1.562928004381288e-09,-2.489327310192607e-05,-3.158503062353969e-09
-6.554842648883386e-05,-9.057876166495436e-05,-8.897679991406505e-09,-1.694372097191277e-13,-5.406632570846413e-15,-2.0944425995496998e-15,-1.8183587435614438e-09,-2.8845845618205025e-05,-4.399995274492878e-09
-0.0012503901227147,-7.247974861141156e-05,-1.9358535520578636e-08,-7.187467563813954e-13,-1.6809545648077147e-10,-7.447522625514218e-10,-1.4654449638347574e-05,-0.0053663121841003,-3.3298295488504155e-06
-1.643455504896814e-05,-3.3312287810470574e-05,-2.6195441370680286e-09,-3.887654060536786e-15,-1.2762711351272513e-15,-5.224082412204637e-15,-4.595815825628108e-09,-7.376850319015701e-05,-1.0697750417301854e-09
-0.0127169245897387,-0.0031334597449333,-9.011644777585648e-06,-4.933873005798269e-10,-2.1100667248356302e-09,-1.6236244642775794e-10,-2.9250146149318767e-06,-0.0010926215168046,-3.806955531844414e-05
-0.0082224065432548,-0.0020249773220262,-5.850348466603273e-06,-3.2034199863303696e-10,-1.3700059154160195e-09,-1.0541741773038029e-10,-1.899073333135423e-06,-0.000708677780626,-2.471523787606904e-05
-1.5401865169276905e-05,-6.274699237180839e-08,-3.8558021347820014e-12,-4.4862986126913046e-18,-1.1195399068333536e-15,-5.621774972460189e-15,-4.9457486430597745e-09,-7.938619824321499e-05,-9.73386894397281e-10
-8.565039148866894e-06,-3.511001838773395e-08,-2.0401853305581183e-12,-2.271344919301977e-18,-5.561939662984841e-16,-2.893923029066395e-15,-2.686194216884173e-09,-4.545557093396322e-05,-5.09846237315089e-10
-2.675611130738388e-60,-1.1251996399257516e-74,-5.3872182791555914e-80,-4.772517964642398e-87,-1.1463654684841301e-72,-5.02853492096049e-60,-5.748658635891398e-53,-1.2195870923104975e-47,-1.2773919648915305e-65
0.0,0.0,0.0,0.0,0.0,0.0,0.0,0.0,0.0
0.0,0.0,0.0,0.0,0.0,0.0,0.0,0.0,0.0
0.0,0.0,0.0,0.0,0.0,0.0,0.0,0.0,0.0
0.0,0.0,0.0,0.0,0.0,0.0,0.0,0.0,0.0
0.0,0.0,0.0,0.0,0.0,0.0,0.0,0.0,0.0
-5.294826422059812e-75,-4.0193857989962104e-91,-1.5999690406518248e-96,-1.1945248759567325e-103,-1.5952610995166972e-87,-3.8907571410782216e-73,-5.27107290618301e-66,-1.337309122854789e-60,-2.107900101152795e-80
-1.0316150914328e-74,-7.831151992555979e-91,-3.1172923842885457e-96,-2.327347094882611e-103,-3.108119688646739e-87,-7.580538933464758e-73,-1.0269870859988537e-65,-2.605540131211835e-60,-4.1069175497843835e-80
-1.009515373075004e-74,-7.470925725982007e-91,-3.188393332499456e-96,-2.498509540489415e-103,-3.365480596292306e-87,-8.311624279127456e-73,-1.0692754815258866e-65,-2.5288418692112064e-60,-4.3096181937639645e-80
-0.016863949210139,-0.0332658967747322,-0.0006453434809301,-2.584355789359852e-06,-1.21835049659548e-07,-4.873525965884684e-09,-1.30433838870783e-05,-0.0006862918695594,-0.0003329219795997
-0.0010178450610121,-0.02468178052834,-0.0004746732690092,-3.298853906695904e-06,-6.8749444393000424e-09,-5.909151980965408e-12,-2.1358434042111012e-08,-1.56111696976209e-05,-1.9362772656013557e-05
-0.0009991600109353,-0.0234361452878225,-0.0004512551978383,-4.785346333331509e-06,-6.773036879730415e-09,-5.80086417849823e-12,-2.0303427631045872e-08,-1.3235633848321004e-05,-1.9007706072063067e-05
-0.0252397441472849,-0.0128554619300782,-0.0002524949453384,-4.779213601530321e-06,-1.7964662703583046e-07,-7.636400202906234e-09,-2.043765393138632e-05,-0.0010781574079416,-0.0004898224784823
-0.0005043385158723,-0.0031957153703503,-5.768505347351964e-05,-4.467452713603662e-06,-8.953127750995944e-11,-4.90857340936227e-13,-6.921182133249293e-08,-0.0001875499213144,-2.264409636233954e-07
-0.0006676080694875,-0.0046024098533469,-0.001032476325543,-2.7332519660028698e-05,-1.98911551294034e-08,-1.2576125835531277e-12,-1.365323990801301e-07,-0.0003791197016935,-1.1000837555508917e-06
-0.0007277651000755,-0.0063875484960894,-0.0031733898528012,-7.898533728233458e-05,-6.394427239613456e-08,-1.0882065357592936e-12,-1.0791907215070632e-08,-3.206098862125115e-05,-2.8991712743711164e-06
-0.0006179896788713,-0.0089892323064676,-0.0045822596669813,-0.0001139389351514,-9.239559084734415e-08,-1.529832230515414e-12,-8.964131665219231e-09,-2.6559065390153837e-05,-4.036481338922863e-06
-0.0003471188134068,-0.0083883773568251,-0.0031151480143063,-7.697339571322294e-05,-5.647508281782668e-08,-8.927950589858874e-13,-4.949298229583829e-09,-1.461766075269361e-05,-2.6138882329806835e-06
-0.0018627204553607,-0.1083389330259455,-0.0118520245138418,-0.006995248419179,-0.0156653627557596,-0.0980565287857467,-0.0192160700251319,-9.7579254049194e-05,-0.0030974137817789
-0.0015530772790183,-0.1148026662357145,-0.0154741650653998,-0.0132279994961143,-2.816542743955836e-05,-1.1193648131315967e-09,-1.5122374354301178e-08,-8.852969975250862e-06,-6.01546258099323e-05
-0.0012969431552289,-0.1102460633582572,-0.0146227536507985,-0.0140646220533547,-2.9858805519427e-05,-1.1811371164463263e-09,-1.2166645192602794e-08,-6.578122951211604e-06,-5.63914615067451e-05
-0.0017230003960202,-0.1068447446470473,-0.0094248821420267,-0.0138884215487856,-2.9099251939818654e-05,-1.129438113140221e-09,-1.6323076608453506e-08,-1.0945862345069075e-05,-4.011484502517618e-05
-0.0017307849689184,-0.1031643450436163,-0.0136235234092588,-0.0103455951476414,-2.210231831126953e-05,-8.8243492595367e-10,-1.7424222450575185e-08,-1.122167305151104e-05,-5.388162979567629e-05
-0.0006103306200115,-0.1055898942920249,-0.0174576258508178,-0.0490069552086597,-0.0044105978862504,-8.74314850534565e-06,-2.021790257598674e-06,-7.754383292245286e-08,-0.0010455492181357
-0.000631610957588,-0.1065748655618903,-0.0446432954899792,-0.1673022982821039,-0.0170203252671316,-3.383036536584299e-05,-7.813876556389827e-06,-1.0911823580376465e-07,-0.0039431371104938
-0.0005794243229765,-0.0982913913003036,-0.0532460606966518,-0.1874670023194601,-0.0194630148566417,-3.870094374050141e-05,-8.938971681330475e-06,-1.0820836302230385e-07,-0.0045161610923253
-0.000411509420572,-0.078681488262161,-0.0441280510269427,-0.1808522048718311,-0.0165755898294351,-2.915546278190458e-05,-6.378548444862291e-06,-1.60299457778703e-07,-0.0036156621658556
-0.0018540533999652,-0.0003444916962914,-2.7220725261433983e-06,-9.945833591503215e-07,-7.900302132938968e-10,-2.3253378808848247e-07,-0.0001832417560937,-0.0070486929401358,-2.520745598933338e-06
-0.0037946365857276,-0.0014603544559275,-3.7458212538419314e-06,-9.80451689249439e-07,-8.965501676289367e-11,-5.801824387126817e-10,-3.872999643513487e-06,-0.0029234457831957,-3.939379792032589e-06
-0.0117927163340638,-0.0016418579148176,-5.263343863106497e-06,-1.0152657363926938e-06,-4.2607197699295525e-07,-2.5236748047666493e-06,-0.0026333983808589,-0.0568188004933594,-0.0004041078086395
-0.0034594001980518,-0.0029742761850862,-4.9986032605326044e-06,-1.0001389571488196e-06,-9.817482144083103e-10,-2.840986318903648e-07,-0.0002221429176581,-0.0072704020462129,-4.187115696888048e-06
-0.0086262039940975,-0.0033392309206775,-6.131215575272177e-06,-1.008000310048789e-06,-2.598480390424088e-07,-2.6386048507921664e-06,-0.0017170715507024,-0.0403086467574869,-0.0002477973383437
-0.0086481072884743,-0.0041459141496609,-6.720880072985248e-06,-1.0453492441025002e-06,-1.7859305923010324e-07,-1.3595363042384218e-06,-0.0013403146613344,0.0625535258581504,-0.0001729570651183
-0.0229182489589879,-0.0477928184142287,-0.001539054476636,-2.0840725051509084e-06,-2.963469061106963e-06,-0.0004819465592567,-0.013621399883182,-0.0977425376818556,-0.000793065247499
0.0738047320818219,0.04636486245841749,-0.0250385708125935,-0.0007048774109507,-3.057520694553401e-05,-2.6220166382923137e-06,-0.0027311685505915,-0.0631565760264176,-0.0014900119108486
-0.013664959019395989,0.056111458816032106,-0.0087030188858113,-0.000287791403027,-0.0012970274294165,-0.0015639228253075,-0.0456503147734675,-0.0706671955361331,-0.0404176679549385
-0.0159206070416668,-0.0402427166564912,-0.0124762462553929,-0.0003564944363184,-3.6734863007611416e-06,-3.452145283045224e-09,-7.328610255335591e-06,-0.0005032662070769,-0.0004780798722436
-0.0009568860640151,-0.0210549336104672,-0.0002890359377774,-9.031034070137638e-05,-1.3685081187751109e-08,-1.8315198958135608e-12,-9.305430809071196e-09,-1.1118755909160198e-05,-1.0144374267892916e-05
-0.0005572330254405,-0.016251899250113,-0.0004537802047082,-2.9405098537215896e-06,-3.0974250221672433e-09,-1.3957013578265929e-12,-5.330720183499812e-09,-3.812409316724095e-07,-7.883375061204598e-06
-0.0005757108843922,-0.0172452297571077,-0.0002331726745671,-7.83380900613138e-08,-2.0680461490361416e-09,-1.4174148979393902e-12,-5.443661884663178e-09,-3.932178418398489e-07,-7.968450272343239e-06
-1.0808231667875429e-05,-0.0010360038447414,-1.1217653440780077e-05,-2.8125990346944187e-09,-1.8954128098828764e-12,-3.2502744865523846e-17,-2.3418887625121e-12,-2.7232482894353025e-08,-9.737954900121766e-09
-0.0003261900711677,-0.000716373708897,-7.456095337227044e-06,-1.868297380361902e-09,-1.5556152195692516e-12,-1.4014985428087612e-14,-3.3277756284291282e-09,-1.467642240235024e-05,-7.790249691677943e-08
-2.9202527620286695e-07,-0.0003675118683493,-4.891416889977413e-06,-1.3367306224190308e-08,-8.60163351735757e-13,-1.0215792255097462e-17,-5.69516659994296e-13,-1.3176892727330002e-07,-3.23383962119971e-09
-1.835954724062451e-05,-0.000382479109672,-1.2440873663275368e-07,-4.088226480950332e-10,-1.9791606782263312e-14,-1.71127081268562e-17,-4.4948892216383166e-12,-1.2580064324858694e-07,-4.147459381885709e-09
-8.4591418889681e-06,-0.0001967960259878,-5.121122097758555e-08,-2.616062002995444e-13,-1.0774704656781081e-14,-5.916620626684597e-15,-1.154362428082026e-09,-4.529743409135742e-06,-2.20552436765549e-09
0.3942898007972476,0.016691947042316718,-0.1033869383595922,-0.0227030356205984,0.057271627946704304,0.11990992643554499,0.3976197079868489,0.20418871078411804,0.01090866284418189
0.4454558945303452,0.10855253975570081,-0.0867153044439158,0.0228467522770029,0.07205011308824309,0.0685939070503647,0.3975705149224661,0.1873474516860706,0.018713761734202805
0.4173789057716616,0.2253407586697151,-0.041476265816927295,0.021557549830262597,0.07290499032809691,0.037017722235143505,0.3696149576941497,0.17543355036378483,0.005515603011543996
0.38446877419601067,0.2795251508013818,-0.025336624572756296,0.042018645242757606,0.0783804420099581,0.052459168667962214,0.3590793069826789,0.1711765385894216,0.01331525039957901
0.38404674888392176,0.3240716007813966,-0.0563725617799589,0.02752114777799631,0.08676222999105308,0.03368193383786772,0.31291254096988547,0.20381777600927697,0.036273384809855896
0.29370190379469696,0.38767537449992784,-0.0348975836918108,0.029556363245687403,0.06222249760557039,0.013915659248599194,0.25548811694117995,0.16357163505548122,0.003020431101857818
0.22761791985278207,0.3728029357565701,-0.022763005628279195,0.0494881222335133,0.049366385318106096,-0.015238833096828192,0.2288125267156335,0.08128087203555512,-0.04418526246797841
0.20654851382222572,0.3453447908280147,-0.011084067256240601,0.0504500009229511,0.043611078336155004,-0.02160239747302721,0.22962350140178062,0.01959573211179655,-0.048211774464682
0.21975533823205928,0.3417268381568428,-0.0046614451012406966,0.05491683451887541,0.05742311055106859,-0.0017285797487911064,0.22297632895921393,0.013881736977958914,-0.008202174140019586
0.553724288558239,0.117307322326429,-0.1425865577581984,-0.10848285790260437,-0.1193176223889961,-0.08793717791948819,-0.3903524507068445,0.061525212517567596,-0.07936732387704121
0.5221031446420616,0.0438413649030114,-0.078854761356732,-0.1499684152862572,-0.052568417535018806,-0.0107939709726965,-0.337704819052225,0.04705381104236889,-0.1247518686051138
0.4545756356437515,-0.0056014370414051,-0.05307343160144001,-0.1938053691768021,-0.0275438486395884,0.0532718044942406,-0.22643708682138128,-0.10457073329332447,-0.1016194921953469
0.4087821600030197,-0.002342997446815,-0.0571848066984457,-0.21655169647177303,-0.0428144202662132,0.036368995953955506,-0.1792561511911498,-0.1458325128835313,-0.0827886716824906
0.1842569424163234,-0.0024085318804028,-0.0653923284300423,-0.2504920379470871,-0.0344867987937596,0.044587547575126896,-0.0951935101284232,-0.2524523206065443,-0.021339373180395894
0.035087568333803304,-0.007848141693648,-0.131873129254307,-0.259631228138066,0.011256626675672302,0.036649200264867905,0.017422153742503596,-0.12149151219144608,-0.000219625788193005
0.0396431119521225,0.0367638101274608,-0.028520910171140196,-0.23005269699587444,0.033127521592710596,0.07674983850708329,0.0582329967063097,-0.0010265801338508879,0.017711267436628198
0.07394110577197119,0.0872352170808239,-0.0225620412357386,-0.1897152972603865,0.02391566545596499,0.035197255258462595,0.017412850808065303,-0.0597837268282355,0.056561282547679906
0.0906013036870668,0.0876368206517724,0.0061086195250838055,-0.09330896691983678,0.024118082830572207,0.002086467266754405,-0.055260885308162803,-0.034419972267533794,-0.0073111057944000996
-0.3612017705067573,-0.10799298973964805,-0.0826100494560047,0.38338932857935804,0.016075568768464,-0.1553619381390238,0.07776987275759362,-0.09989723575339415,-0.17470980433388217
-0.3037348657172251,0.10260942397022554,-0.2498391949305838,0.1747314621897036,-0.0030122917571814845,-0.12363207104824162,0.23940293922804978,-0.1511217734256996,-0.20975122135952892
-0.06709549596503822,-0.13002953937421335,-0.18129307914490939,0.19166088250788788,-0.059216539454986394,-0.007977664116701422,0.2408737086436279,-0.15644107227113002,0.028460567738299025
-0.1810104220736265,-0.18948767482074397,-0.18018544137594522,0.06475557269429527,-0.164762277848264,-0.03155674252618529,0.18176761513106654,-0.10562288345601734,0.15012199148433641
0.07782214522297837,-0.2083070641713166,-0.19574812826111532,-0.17254910627743733,-0.2756224172217982,0.09411052221666522,-0.010225285130014805,0.04803994816493867,0.06173038613929677
-0.034441812509248104,-0.2419779634983153,-0.31392411968214967,-0.17910712244987143,-0.0688324065733843,0.06969248023197328,0.18324208283643517,0.23894529035450085,-0.12378679084480629
-0.2314761299985198,-0.25132670264123286,-0.3185246405085419,-0.29001359281178696,-0.11241792520597671,0.37525570244828066,0.11141123061308689,0.16447145110902306,0.007472611203332424
0.0880770466525409,-0.2189591042560819,-0.33640775037228066,-0.12294412082219452,0.11983788333087919,0.22145719692884788,0.06649483343415719,0.213660113993717,0.024692529155648346
0.1937186699266602,-0.08409214310542237,-0.3178932568222463,-0.2371066955001048,0.23938979832468,0.16602401156974717,0.2312423378626574,0.2294351737659664,0.1411588648020617
-0.1312974735189355,-0.3738123914294097,-0.5030275412627059,-0.6094378349201242,-0.5046898453085054,0.17639214372343204,0.3111518517592736,0.3685359461906016,-0.09044261034792789
-0.04176585528175969,-0.005529500698653433,-0.20545713132294907,-0.3885788926209458,-0.3715928905791377,0.4058544307852406,0.48899243914374935,0.3234435585664928,-0.06557947066844005
0.0017760002035939748,0.0002716055331942191,-0.25637375172432164,-0.2801861684506306,0.02085253355079747,0.12724163841934583,0.4814465199070258,0.14022139818770307,-0.04545962475814258
0.149609957712797,-0.20764947650983007,-0.1825191051578981,-0.2855600073372543,0.1752670210015777,0.10605565517148957,0.32949961848410664,0.16623668655413232,0.09730009012797519
0.13060727225918706,-0.20355823991299288,-0.1418319277465756,-0.5460919622386948,0.14635103759993112,0.36406336842556447,0.2730994008369652,0.34104799104462613,0.30334125193847317
0.2441685304013828,0.10947404230128771,-0.14514736370759843,-0.4549309704582751,0.03140961926247399,0.3549479944121746,0.3947082873114382,0.31518107218994224,0.351471709182666
0.20261672733761227,0.1460665066250631,0.1848219323435204,0.14285094164187778,0.19087585429242787,0.48671134441699937,0.4202655888826207,0.21289253802701869,0.24728008391721112
0.5057480868562537,0.053985970657194515,0.39265357278718677,0.16014779573793103,0.10805774432165394,0.2355261221921806,0.5118061422513593,0.4054831758486073,0.41098780249461986
0.5728057581094398,0.0768484424607333,0.06547045335319088,0.15377209019159063,0.4361856157570888,0.37373066386954035,0.07261704977400063,0.2610451779772638,0.3225376243520147
