time,lat_lon,clouds_idx,date,lat,lon,speed_700mb,speed_850mb,dir_700mb,dir_850mb,lat_lon_700mb,lat_lon_850mb,lat_700mb,lon_700mb,lat_850mb,lon_850mb,new_clouds_idx,err
2023-09-15 11:15:00,"(46.0, 6.0)",0.910493827160494,2023-09-15,46.0,6.0,22.630212,14.874156000000001,195.039,207.059,"(45.852524730795885, 5.943247593532279)","(45.910614829366416, 5.93455818483417)",45.852524730795885,5.943247593532279,45.910614829366416,5.93455818483417,0.9031840639217317,5.343263860676089e-05
2023-09-15 11:15:00,"(46.0, 6.5)",0.910355486862442,2023-09-15,46.0,6.5,19.570211999999998,4.974156,188.039,182.059,"(45.86924398246216, 6.473543426117497)","(45.96645815913136, 6.49827038260464)",45.86924398246216,6.473543426117497,45.96645815913136,6.49827038260464,0.9096169041272912,5.455044566628615e-07
2023-09-15 11:15:00,"(46.0, 7.0)",0.910493827160494,2023-09-15,46.0,7.0,8.410212000000001,2.1841559999999998,172.039,140.059,"(45.9437980500959, 7.011270053954034)","(45.98870022259827, 7.013574504075557)",45.9437980500959,7.011270053954034,45.98870022259827,7.013574504075557,0.9101798863215935,9.855885032952561e-08
2023-09-15 11:15:00,"(46.0, 7.5)",0.9107981220657276,2023-09-15,46.0,7.5,6.520212,2.274156,151.039,124.059,"(45.96150465810006, 7.530553700267072)","(45.99140559773357, 7.518239500282516)",45.96150465810006,7.530553700267072,45.99140559773357,7.518239500282516,0.858502312341467,0.002734851714716072
2023-09-15 11:15:00,"(46.0, 8.0)",0.2282091917591125,2023-09-15,46.0,8.0,7.3302119999999995,2.1841559999999998,152.039,92.0592,"(45.956310923484516, 8.033258827952434)","(45.999469791705266, 8.021133217367401)",45.956310923484516,8.033258827952434,45.999469791705266,8.021133217367401,0.3675179628751402,0.0194069337098578
2023-09-15 11:15:00,"(46.0, 8.5)",0.4478330658105939,2023-09-15,46.0,8.5,13.720212,5.964156,178.039,90.0592,"(45.90747550562013, 8.504540611085199)","(45.99995355641986, 8.557744921952464)",45.90747550562013,8.504540611085199,45.99995355641986,8.557744921952464,0.3112668887248784,0.018650320723807005
2023-09-15 11:15:00,"(46.0, 9.0)",0.0988654781199351,2023-09-15,46.0,9.0,15.160212000000001,13.614156,188.039,125.059,"(45.898709307260425, 8.979497985902027)","(45.94721527928799, 9.10782809590385)",45.898709307260425,8.979497985902027,45.94721527928799,9.10782809590385,0.5312751217148501,0.18697809987388148
2023-09-15 11:15:00,"(46.0, 9.5)",0.0767973856209149,2023-09-15,46.0,9.5,17.860212,6.954156,171.039,124.059,"(45.88095578560112, 9.526896384003333)","(45.97371603066214, 9.555762841401998)",45.88095578560112,9.526896384003333,45.97371603066214,9.555762841401998,0.4067105797199414,0.10884271564062195
2023-09-15 11:15:00,"(46.0, 10.0)",0.8316831683168316,2023-09-15,46.0,10.0,10.300212,2.9041560000000004,160.039,143.059,"(45.93467193099838, 10.03401806783634)","(45.98433739549941, 10.016895554837733)",45.93467193099838,10.03401806783634,45.98433739549941,10.016895554837733,0.643773851192402,0.03530991146216945
2023-09-15 11:15:00,"(46.5, 6.0)",0.8453125,2023-09-15,46.5,6.0,23.080212000000003,18.924156,195.039,205.059,"(46.349605191333445, 5.941594626754092)","(46.38432758786504, 5.921797400921836)",46.349605191333445,5.941594626754092,46.38432758786504,5.921797400921836,0.7925726386157126,0.002781492978833853
2023-09-15 11:15:00,"(46.5, 6.5)",0.9092331768388108,2023-09-15,46.5,6.5,21.640212000000002,14.784156,194.039,210.059,"(46.35834972189709, 6.448798595897786)","(46.413658666638156, 6.427724000735419)",46.35834972189709,6.448798595897786,46.413658666638156,6.427724000735419,0.9000612610293185,8.412403961641445e-05
2023-09-15 11:15:00,"(46.5, 7.0)",0.910377358490566,2023-09-15,46.5,7.0,15.610212,7.584156,203.039,197.059,"(46.40307301829903, 6.940381585266638)","(46.451080381848264, 6.978275248676671)",46.40307301829903,6.940381585266638,46.451080381848264,6.978275248676671,0.9089679374952548,1.9864675420239047e-06
2023-09-15 11:15:00,"(46.5, 7.5)",0.909952606635071,2023-09-15,46.5,7.5,8.680212,4.974156,220.039,151.059,"(46.45515766187786, 7.445471488674183)","(46.47062974113036, 7.523509243272888)",46.45515766187786,7.445471488674183,46.47062974113036,7.523509243272888,0.9046488809469192,2.8129506175161818e-05
2023-09-15 11:15:00,"(46.5, 8.0)",0.9093799682034976,2023-09-15,46.5,8.0,5.170212,3.084156,157.039,137.059,"(46.46787988004986, 8.019698378902676)","(46.48476624469927, 8.020524395639267)",46.46787988004986,8.019698378902676,46.48476624469927,8.020524395639267,0.8579668625945598,0.0026433074283557976
2023-09-15 11:15:00,"(46.5, 8.5)",0.8987138263665595,2023-09-15,46.5,8.5,8.410212000000001,2.364156,150.039,160.059,"(46.450836800748895, 8.541012417908037)","(46.48500535668771, 8.507876425829364)",46.450836800748895,8.541012417908037,46.48500535668771,8.507876425829364,0.8637179041597685,0.0012247145711037704
2023-09-15 11:15:00,"(46.5, 9.0)",0.9108589951377634,2023-09-15,46.5,9.0,13.540212,2.7241560000000002,161.039,188.059,"(46.41359825729361, 9.042939943513101)","(46.481801678540904, 8.996269452436396)",46.41359825729361,9.042939943513101,46.481801678540904,8.996269452436396,0.8856139136644934,0.0006373141385920393
2023-09-15 11:15:00,"(46.5, 9.5)",0.9104234527687296,2023-09-15,46.5,9.5,11.110212,2.364156,162.039,195.059,"(46.428690769155544, 9.533444702953995)","(46.484596820047585, 9.493999770885248)",46.428690769155544,9.533444702953995,46.484596820047585,9.493999770885248,0.8797284028711196,0.0009421860882167653
2023-09-15 11:15:00,"(46.5, 10.0)",0.9098360655737704,2023-09-15,46.5,10.0,8.140212,1.9141560000000002,163.039,166.059,"(46.447466144853664, 10.023186539994933)","(46.48746562454402, 10.004505053935878)",46.447466144853664,10.023186539994933,46.48746562454402,10.004505053935878,0.8897359140494462,0.0004040160913007927
2023-09-15 11:15:00,"(47.0, 6.0)",0.9098101265822784,2023-09-15,47.0,6.0,19.840212,15.864156000000001,192.039,203.059,"(46.86909050692607, 5.959258633407812)","(46.901519299898325, 5.938801103231494)",46.86909050692607,5.959258633407812,46.901519299898325,5.938801103231494,0.6249295765070093,0.08115692781118793
2023-09-15 11:15:00,"(47.0, 6.5)",0.9095238095238096,2023-09-15,47.0,6.5,19.480212,17.844156,195.039,214.059,"(46.87307543356339, 6.450233735180179)","(46.90025208220378, 6.401574035918627)",46.87307543356339,6.450233735180179,46.90025208220378,6.401574035918627,0.8850508244749657,0.0005989269972009359
2023-09-15 11:15:00,"(47.0, 7.0)",0.9092356687898088,2023-09-15,47.0,7.0,15.520211999999999,17.844156,205.039,215.059,"(46.905128169546, 6.935301340055183)","(46.901443204481204, 6.899046484565695)",46.905128169546,6.935301340055183,46.901443204481204,6.899046484565695,0.9063864170329528,8.118235573947113e-06
2023-09-15 11:15:00,"(47.0, 7.5)",0.8576,2023-09-15,47.0,7.5,12.100212,14.784156,226.039,212.059,"(46.943322244481806, 7.414170966447842)","(46.91546130412441, 7.4226976342121365)",46.943322244481806,7.414170966447842,46.91546130412441,7.4226976342121365,0.9096333125651486,0.0027074656165024446
2023-09-15 11:15:00,"(47.0, 8.0)",0.9098228663446056,2023-09-15,47.0,8.0,9.580212,11.814156,220.039,207.059,"(46.95051196000777, 7.939262722122812)","(46.9290171420295, 7.9470494119792106)",46.95051196000777,7.939262722122812,46.9290171420295,7.9470494119792106,0.9096087423688565,4.584907699062628e-08
2023-09-15 11:15:00,"(47.0, 8.5)",0.9105691056910568,2023-09-15,47.0,8.5,9.760212000000001,7.314156,171.039,200.059,"(46.93495694584655, 8.514979519590645)","(46.953648106810164, 8.475275916053777)",46.93495694584655,8.514979519590645,46.953648106810164,8.475275916053777,0.9101358887926223,1.876768810891663e-07
2023-09-15 11:15:00,"(47.0, 9.0)",0.9101307189542484,2023-09-15,47.0,9.0,14.260212000000001,2.4541560000000002,170.039,197.059,"(46.905243855258526, 9.024295898335524)","(46.98417169215175, 8.992901936339791)",46.905243855258526,9.024295898335524,46.98417169215175,8.992901936339791,0.9102486529879318,1.390843630084467e-08
2023-09-15 11:15:00,"(47.0, 9.5)",0.9101307189542484,2023-09-15,47.0,9.5,15.160212000000001,1.284156,172.039,180.059,"(46.89870770918851, 9.520679182129282)","(46.99133660222066, 9.49998696148635)",46.89870770918851,9.520679182129282,46.99133660222066,9.49998696148635,0.9102970898373459,2.7679270742664078e-08
2023-09-15 11:15:00,"(47.0, 10.0)",0.9110378912685336,2023-09-15,47.0,10.0,10.300212,1.284156,167.039,151.059,"(46.932280143853056, 10.022762191782995)","(46.99241844261733, 10.006127285014578)",46.932280143853056,10.022762191782995,46.99241844261733,10.006127285014578,0.9099222147456897,1.244734103625155e-06
2023-09-15 11:15:00,"(47.5, 6.0)",0.9105431309904152,2023-09-15,47.5,6.0,16.690212,12.714156,181.039,163.059,"(47.38742885829235, 5.996991651411035)","(47.41795234215845, 6.0368401974330315)",47.38742885829235,5.996991651411035,47.41795234215845,6.0368401974330315,0.890619409858932,0.00039695466372511093
2023-09-15 11:15:00,"(47.5, 6.5)",0.909967845659164,2023-09-15,47.5,6.5,16.240212,14.514156000000002,186.039,177.059,"(47.391053575168065, 6.483015735811222)","(47.40221870870235, 6.507403749379134)",47.391053575168065,6.483015735811222,47.40221870870235,6.507403749379134,0.9078393775847571,4.5303763437695e-06
2023-09-15 11:15:00,"(47.5, 7.0)",0.9095315024232632,2023-09-15,47.5,7.0,14.980212000000002,16.584156,191.039,187.059,"(47.40081449333675, 6.971482896219298)","(47.38897320754779, 6.979740891223443)",47.40081449333675,6.971482896219298,47.38897320754779,6.979740891223443,0.9099076263821739,1.4146923246668395e-07
2023-09-15 11:15:00,"(47.5, 7.5)",0.9105691056910568,2023-09-15,47.5,7.5,12.910212000000001,16.134156,197.039,193.059,"(47.41673060770817, 7.462382295657143)","(47.39397437354885, 7.463759022370475)",47.41673060770817,7.462382295657143,47.39397437354885,7.463759022370475,0.9099689944795828,3.6013346613674845e-07
2023-09-15 11:15:00,"(47.5, 8.0)",0.9099836333878888,2023-09-15,47.5,8.0,10.930212,13.794156000000001,192.039,196.059,"(47.42788766157814, 7.977326687666195)","(47.41057598857433, 7.962058553540379)",47.42788766157814,7.977326687666195,47.41057598857433,7.962058553540379,0.9097175044670915,7.082460248470809e-08
2023-09-15 11:15:00,"(47.5, 8.5)",0.9095394736842104,2023-09-15,47.5,8.5,10.840212,11.094156000000002,176.039,206.059,"(47.42704842279196, 8.507447121285646)","(47.43276537775443, 8.451527238908895)",47.42704842279196,8.507447121285646,47.43276537775443,8.451527238908895,0.9095927498524817,2.8383501056753146e-09
2023-09-15 11:15:00,"(47.5, 9.0)",0.9107438016528926,2023-09-15,47.5,9.0,12.100212,8.394156,179.039,213.059,"(47.41838550089631, 9.002018088855383)","(47.45253872579171, 8.954445843854932)",47.41838550089631,9.002018088855383,47.45253872579171,8.954445843854932,0.9103901668335623,1.2505758544274694e-07
2023-09-15 11:15:00,"(47.5, 9.5)",0.9102990033222592,2023-09-15,47.5,9.5,12.460212,6.8641559999999995,189.039,206.059,"(47.41698878510455, 9.480533876949744)","(47.458401615612196, 9.469999302253067)",47.41698878510455,9.480533876949744,47.458401615612196,9.469999302253067,0.9103262296996043,7.412756233372803e-10
2023-09-15 11:15:00,"(47.5, 10.0)",0.9093959731543624,2023-09-15,47.5,10.0,10.480212,6.054156,201.039,203.059,"(47.434013298565695, 9.962578499206241)","(47.46242208638437, 9.97640650486972)",47.434013298565695,9.962578499206241,47.46242208638437,9.97640650486972,0.9098278825839303,1.8654575534970752e-07
