loss,root_mean_squared_error,val_loss,val_root_mean_squared_error
0.19750702381134033,0.4444175958633423,0.3434920012950897,0.5860819220542908
0.1860809177160263,0.43137091398239136,0.32033607363700867,0.5659823417663574
0.17150530219078064,0.4141319990158081,0.289240300655365,0.5378106236457825
0.15474072098731995,0.39337095618247986,0.25429049134254456,0.5042722821235657
0.1396716833114624,0.3737267553806305,0.22164839506149292,0.47079551219940186
0.12669503688812256,0.35594242811203003,0.1939891129732132,0.44044196605682373
0.11555804312229156,0.3399382531642914,0.17174802720546722,0.41442492604255676
0.10643016546964645,0.326236367225647,0.15364761650562286,0.39197906851768494
0.09917652606964111,0.3149230480194092,0.14142993092536926,0.3760717213153839
0.09275703877210617,0.3045603632926941,0.1285153031349182,0.35849031805992126
