loss,root_mean_squared_error,val_loss,val_root_mean_squared_error
0.19990789890289307,0.4471106231212616,0.3419624865055084,0.5847755670547485
0.18811067938804626,0.433717280626297,0.3185428977012634,0.5643960237503052
0.1742866188287735,0.41747647523880005,0.2892811596393585,0.5378486514091492
0.15975630283355713,0.3996952772140503,0.2566327750682831,0.5065893530845642
0.14675377309322357,0.38308456540107727,0.22755664587020874,0.4770289659500122
0.13651947677135468,0.36948540806770325,0.2062019258737564,0.45409461855888367
0.12710878252983093,0.35652318596839905,0.1882934719324112,0.4339279532432556
0.11992098391056061,0.3462960720062256,0.17413778603076935,0.41729816794395447
0.11284828931093216,0.3359290063381195,0.16088059544563293,0.40109923481941223
0.10633789747953415,0.3260948956012726,0.14671102166175842,0.38302871584892273
0.09885676950216293,0.31441497802734375,0.13061101734638214,0.3614014685153961
0.09241528064012527,0.30399879813194275,0.11841250956058502,0.34411120414733887
0.08670268207788467,0.2944531738758087,0.10925761610269547,0.33054137229919434
0.08183025568723679,0.2860598564147949,0.09932281076908112,0.3151552379131317
0.07737328857183456,0.27816057205200195,0.09263681620359421,0.3043629825115204
0.07308751344680786,0.2703470289707184,0.08545269817113876,0.29232293367385864
0.0697546899318695,0.26411113142967224,0.0805206373333931,0.283761590719223
0.06620556116104126,0.2573044002056122,0.07432173192501068,0.2726201117038727
0.06372322142124176,0.2524345815181732,0.0713399350643158,0.2670953571796417
0.0612030066549778,0.24739240109920502,0.06770817190408707,0.2602079510688782
0.05852030590176582,0.2419097125530243,0.06425631791353226,0.25348830223083496
0.056916411966085434,0.2385716289281845,0.06313920766115189,0.2512751817703247
0.055287450551986694,0.2351328581571579,0.06054842472076416,0.2460658848285675
0.0542805939912796,0.23298196494579315,0.060070544481277466,0.24509292840957642
0.05328685790300369,0.23083947598934174,0.058628883212804794,0.24213401973247528
0.05244246870279312,0.2290031909942627,0.05744233727455139,0.23967130482196808
0.051311176270246506,0.22651967406272888,0.056971289217472076,0.23868660628795624
0.05064281448721886,0.22503958642482758,0.0559716559946537,0.23658329248428345
0.05011914297938347,0.22387303411960602,0.05564939230680466,0.23590122163295746
0.04944996535778046,0.22237348556518555,0.05527256429195404,0.23510117828845978
0.04925461858510971,0.22193385660648346,0.0546974278986454,0.2338748276233673
0.048361886292696,0.21991337835788727,0.05415398254990578,0.2327100932598114
0.04792303219437599,0.21891330182552338,0.05403418093919754,0.23245254158973694
0.047534894198179245,0.21802498400211334,0.052708543837070465,0.22958341240882874
0.04697377234697342,0.21673433482646942,0.05225677415728569,0.22859741747379303
0.0470837727189064,0.2169879674911499,0.05269256606698036,0.2295486181974411
0.046481914818286896,0.21559664607048035,0.052043139934539795,0.22812965512275696
0.04607594013214111,0.21465307474136353,0.05179442837834358,0.2275839000940323
0.04605727270245552,0.21460957825183868,0.05180862918496132,0.2276151031255722
0.045846983790397644,0.214119091629982,0.05151018127799034,0.22695854306221008
0.045388512313365936,0.21304580569267273,0.05139712616801262,0.22670935094356537
0.044913649559020996,0.21192841231822968,0.05082341283559799,0.22544048726558685
0.04514326900243759,0.2124694585800171,0.05078231543302536,0.2253493219614029
0.044760528951883316,0.21156682074069977,0.050984855741262436,0.22579826414585114
0.04453577101230621,0.21103501319885254,0.05030372738838196,0.22428490221500397
0.04444948583841324,0.2108304649591446,0.050168659538030624,0.22398361563682556
0.044208824634552,0.21025893092155457,0.04989137127995491,0.2233637571334839
0.04372004419565201,0.2090933918952942,0.05036388337612152,0.2244189977645874
0.04344017058610916,0.20842306315898895,0.049893151968717575,0.22336775064468384
0.043078839778900146,0.207554429769516,0.04971831291913986,0.22297604382038116
0.04317270591855049,0.20778043568134308,0.04938323423266411,0.22222338616847992
0.04317159950733185,0.20777776837348938,0.0492108054459095,0.22183509171009064
0.04275130853056908,0.20676389336585999,0.049856577068567276,0.22328586876392365
0.04270203784108162,0.2066446989774704,0.04931238293647766,0.22206391394138336
0.04251523315906525,0.20619221031665802,0.049282606691122055,0.22199687361717224
0.04231123626232147,0.2056969553232193,0.049242909997701645,0.22190743684768677
0.042064402252435684,0.2050960808992386,0.049265626817941666,0.22195860743522644
0.042143549770116806,0.20528897643089294,0.04862568527460098,0.22051234543323517
0.04183296114206314,0.20453107357025146,0.049277689307928085,0.22198578715324402
0.041799671947956085,0.20444966852664948,0.048764657229185104,0.22082720696926117
0.04167788475751877,0.20415161550045013,0.048824600875377655,0.22096289694309235
0.041312772780656815,0.20325542986392975,0.04860074818134308,0.22045576572418213
0.041106920689344406,0.20274841785430908,0.048375096172094345,0.21994340419769287
0.04112817347049713,0.20280082523822784,0.049213897436857224,0.22184205055236816
0.04099084809422493,0.20246194303035736,0.04836010932922363,0.21990932524204254
0.04057552292943001,0.2014336884021759,0.04853995889425278,0.22031787037849426
0.04040072485804558,0.20099930465221405,0.04867693781852722,0.2206284999847412
0.04034596309065819,0.2008630484342575,0.0486217625439167,0.22050343453884125
0.04009418189525604,0.2002352923154831,0.04848780483007431,0.22019948065280914
0.04004352167248726,0.20010876655578613,0.048424817621707916,0.22005638480186462
0.03981343284249306,0.19953303039073944,0.04851759225130081,0.22026708722114563
0.039831310510635376,0.19957782328128815,0.04811835289001465,0.21935895085334778
0.03958002105355263,0.19894729554653168,0.04878579080104828,0.22087505459785461
0.03937837481498718,0.1984398365020752,0.04858741536736488,0.2204255312681198
0.039235878735780716,0.19808048009872437,0.048591628670692444,0.22043508291244507
0.039383187890052795,0.198451966047287,0.04857506975531578,0.22039753198623657
0.03905680030584335,0.1976279467344284,0.048509322106838226,0.2202482968568802
0.03896782547235489,0.1974027156829834,0.048251938074827194,0.21966324746608734
0.03868407383561134,0.19668267667293549,0.048300307244062424,0.2197733074426651
0.03848093003034592,0.1961655616760254,0.04864271730184555,0.22055092453956604
0.03851883113384247,0.1962621659040451,0.04859912768006325,0.22045210003852844
0.03809169679880142,0.19517093896865845,0.04861154034733772,0.22048024833202362
0.03819093480706215,0.19542498886585236,0.0486520491540432,0.2205720990896225
0.03789399564266205,0.19466380774974823,0.04814200848340988,0.2194128781557083
0.03793702647089958,0.1947743147611618,0.0482860803604126,0.21974092721939087
0.037785183638334274,0.1943841278553009,0.048169076442718506,0.21947453916072845
0.03744819387793541,0.193515345454216,0.04820092394948006,0.2195471078157425
0.03756226599216461,0.1938098669052124,0.04835961014032364,0.21990817785263062
0.03713614493608475,0.19270740449428558,0.04796557128429413,0.21901044249534607
0.03716915473341942,0.19279301166534424,0.04908740520477295,0.22155678272247314
0.03694037348031998,0.1921987682580948,0.049392156302928925,0.22224348783493042
0.03659890592098236,0.1913084089756012,0.04843427613377571,0.22007788717746735
0.03663152828812599,0.1913936734199524,0.048554595559835434,0.22035107016563416
0.03639981895685196,0.1907873898744583,0.04835553467273712,0.21989892423152924
0.03618483245372772,0.1902230978012085,0.048895880579948425,0.22112414240837097
0.036183081567287445,0.1902185082435608,0.04829061031341553,0.219751238822937
0.03586885333061218,0.18939073383808136,0.04846051707863808,0.22013750672340393
0.03603849560022354,0.18983808159828186,0.04824887961149216,0.21965628862380981
0.03574702516198158,0.18906882405281067,0.04885324835777283,0.2210277020931244
0.03561410307884216,0.18871699273586273,0.04945812001824379,0.22239181399345398
